…
``` r
# Compute gene mean expression
gene.mean.by.grp <- count.norm %>%
  summarizeby(samples$group, fun = mean) %>%
  round(2) %>%
  as.data.frame()

# Create a tidy data frame for plotting
gene.mean.by.grp <- gene.mean.by.grp %>%
  mutate(gene.id = row.names(.)) %>%
  select(gene.id, everything()) %>%
  as_data_frame()
# Print mean expression
gene.mean.by.grp
# # A tibble: 2,000 x 5
#    gene.id              BM    PB    PC   prePB
#    <chr>             <dbl> <dbl> <dbl>   <dbl>
#  1 ENSG00000120686  4397.  7158. 7180. 3519.  
#  2 ENSG00000169246 12067.  2547. 3181. 3301.  
#  3 ENSG00000229239     0      0     0     0   
#  4 ENSG00000202147     0      0     0     0   
#  5 ENSG00000231356     0      0     0     0   
#  6 ENSG00000172954    89.3  271.  206.  557.  
#  7 ENSG00000077157   585.   500.  791.  328.  
#  8 ENSG00000258799     0      0     0     0   
#  9 ENSG00000171503   275.   537.  666.  918.  
# 10 ENSG00000240244     0      0     0     0.41
# # … with 1,990 more rows
…
